﻿{
  "user1": {
    "name": "sunil",
    "password": "password1",
    "profession": "teacher",
    "id": 1
  },
  "user2": {
    "name": "suresh",
    "password": "password2",
    "profession": "librarian",
    "id": 2
  },
  "user3": {
    "name": "ramesh",
    "password": "password3",
    "profession": "clerk",
    "id": 3
  }
}